<?xml version="1.0" encoding="UTF-8"?>
<!DOCTYPE suite SYSTEM "http://testng.org/testng-1.0.dtd">
<suite verbose="0" name="Failed suite [com.helios.runners.TestRunner]">
  <test name="Command line test(failed)">
    <classes>
      <class name="com.helios.runners.TestRunner">
        <methods>
          <include name="feature" invocation-numbers="0"/>
          <include name="setUpClass"/>
          <include name="tearDownClass"/>
        </methods>
      </class> <!-- com.helios.runners.TestRunner -->
    </classes>
  </test> <!-- Command line test(failed) -->
</suite> <!-- Failed suite [com.helios.runners.TestRunner] -->
