/Users/anjgmv/WorkSpace/agnosticui_helios/src/main/java/com/helios/util/Functions.java
/Users/anjgmv/WorkSpace/agnosticui_helios/src/main/java/com/helios/pageobjects/HomePage.java
/Users/anjgmv/WorkSpace/agnosticui_helios/src/main/java/com/helios/util/CommonUtils.java
/Users/anjgmv/WorkSpace/agnosticui_helios/src/main/java/com/helios/managers/WebDriverManager.java
/Users/anjgmv/WorkSpace/agnosticui_helios/src/main/java/com/helios/managers/PageObjectManager.java
/Users/anjgmv/WorkSpace/agnosticui_helios/src/main/java/com/helios/pageobjects/BookATestDrive_page.java
